=====================================================

CloudWatch


Metric:  a collection of data points


Alarms:
	Insufficient - not enough data
	Alarm: if conditions matches for alarm
	OK: data, but no conditions matched for alarm.

	Actions: 

=====================================================







=====================================================
